Generate ficus benjamina leaf shapes with bezier curves • ggbenjamini
…
Branches

You can also generate branches of leaves with the command benjamini_branch() (see the vignettes vignette("create_benjamini_polygons") and vignette("create_benjamini_tree") for examples):

df_branch <- benjamini_branch() %>%
  # we add a unique identifier `b` for all beziers:
  tidyr::unite(b, i_leaf, element, i_part, remove = FALSE) 
df_branch
#> # A tibble: 436 × 8
#>    b          i_leaf element i_part     x     y type        param_type          
#>    <chr>       <dbl> <chr>    <dbl> <dbl> <dbl> <chr>       <chr>               
#>  1 0_branch_1      0 branch       1  70    280  branch      bezier start point  
#>  2 0_branch_1      0 branch       1  84    245  branch      bezier control poin…
#>  3 0_branch_1      0 branch       1 126    217  branch      bezier control poin…
#>  4 0_branch_1      0 branch       1 168    217  branch      bezier end point    
#>  5 1_stalk_0       1 stalk        0  75.7  269. leaf_bezier bezier start point  
#>  6 1_stalk_0       1 stalk        0  76.2  268. leaf_bezier bezier control poin…
#>  7 1_stalk_0       1 stalk        0  73.8  264  leaf_bezier bezier control poin…
#>  8 1_stalk_0       1 stalk        0  74.0  264. leaf_bezier bezier end point    
#>  9 1_half 2_1      1 half 2       1  74.0  264. leaf_bezier bezier start point  
#> 10 1_half 2_1      1 half 2       1  71.4  264. leaf_bezier bezier control poin…
#> # … with 426 more rows
…
