…
## Illustration of the generated data

The package generates bezier curves that imitate the shape of the leaves
of a ficus benjamini. The main function is `benjamini_leaf()` which
results in a dataframe where i denotes the id of the bezier curve, and x
& y point coordinates:

``` r
df <- benjamini_leaf()
df
#> # A tibble: 36 × 5
#>        x     y param_type             i_part element
#>    <dbl> <dbl> <chr>                   <dbl> <chr>  
#>  1  10    40   bezier start point          0 stalk  
#>  2  10.0  40.9 bezier control point 1      0 stalk  
#>  3  20.0  39.4 bezier control point 2      0 stalk  
#>  4  20    40   bezier end point            0 stalk  
#>  5  20    40   bezier start point          1 half 2 
#>  6  22    36   bezier control point 1      1 half 2 
#>  7  29    35.2 bezier control point 2      1 half 2 
#>  8  34    35   bezier end point            1 half 2 
#>  9  34    35   bezier start point          2 half 2 
#> 10  39    34.8 bezier control point 1      2 half 2 
#> # … with 26 more rows
```
…
