Create an svg file with benjamini leaves • ggbenjamini
…
df_svg
#> # A tibble: 910 × 8
#>    i_branch i_leaf element path_str              fill_color fill_var hex  
#>       <int>  <dbl> <chr>   <chr>                 <chr>         <dbl> <chr>
#>  1        1      0 branch  M 417.643954612085,6… brown             7 #DBA…
#>  2        1      1 half 1  M 412.93012649981,62… url(#Radi…       13 #BB5…
#>  3        1      1 half 2  M 412.93012649981,62… url(#Radi…       13 #BB5…
#>  4        1      1 stalk   M 417.898908735545,6… sandybrown       13 #BB5…
#>  5        1      2 half 1  M 426.168630218796,6… url(#Radi…       14 #B65…
#>  6        1      2 half 2  M 426.168630218796,6… url(#Radi…       14 #B65…
#>  7        1      2 stalk   M 420.192192844346,6… sandybrown       14 #B65…
#>  8        1      3 half 1  M 423.284651718334,5… url(#Radi…       14 #B65…
#>  9        1      3 half 2  M 423.284651718334,5… url(#Radi…       14 #B65…
#> 10        1      3 stalk   M 424.327053585971,6… sandybrown       14 #B65…
#> # … with 900 more rows, and 1 more variable: fill_gradient <chr>
…
