Create polygons from benjamini leaves • ggbenjamini
…
    mutate(y = y) %>% 
    mutate()
}
df_branches <- f(xu, xm1, xm2, xo, y) %>% 
  mutate(x = x + size/2) %>% 
  mutate_at(
    c("x", "y"), 
    ~ .x + sample(
      (-size/20):(size/20), 
      length(xo), 
      replace = FALSE
    )
  )
df_branches
#> # A tibble: 36 × 4
#>    i_branch name      x     y
#>       <int> <chr> <dbl> <dbl>
#>  1        1 xu       54   149
#>  2        1 xm1     -14    77
#>  3        1 xm2      77    80
#>  4        1 xo       23    17
#>  5        2 xu       57   146
#>  6        2 xm1      -3    76
#>  7        2 xm2      81    74
#>  8        2 xo       28    22
#>  9        3 xu       59   152
#> 10        3 xm1      22    85
#> # … with 26 more rows
…
