Import bezier pathes from svg files • ggbenjamini
…
(df_svg_skeleton <- df_raw %>%
  group_by(row) %>% 
  summarise(split_beziers(cur_data()))
)
#> `summarise()` has grouped output by 'row'. You can override using the `.groups` argument.
#> # A tibble: 40 × 5
#> # Groups:   row [5]
#>      row svg_point_type     x     y i_curve
#>    <int> <chr>          <dbl> <dbl>   <int>
#>  1     1 M               180.  230.       1
#>  2     1 C               158.  194.       1
#>  3     1 C               119.  221.       1
#>  4     1 C               120.  252.       1
#>  5     1 C               120.  252.       2
#>  6     1 C               119.  195.       2
#>  7     1 C               166.  165.       2
#>  8     1 C               185.  200.       2
#>  9     2 M               182.  163.       1
#> 10     2 C               160.  136.       1
#> # … with 30 more rows
…
